<svg width="21" height="21" viewBox="0 0 21 21" fill="none" xmlns="http://www.w3.org/2000/svg">
<g id="account_tree">
<mask id="mask0_42_845" style="mask-type:alpha" maskUnits="userSpaceOnUse" x="0" y="0" width="21" height="21">
<rect id="Bounding box" x="0.5" y="0.5" width="20" height="20" fill="#D9D9D9"/>
</mask>
<g mask="url(#mask0_42_845)">
<path id="account_tree_2" d="M14.8763 18.1894C14.3386 18.1894 13.876 18.0056 13.4884 17.638C13.1009 17.2704 12.9038 16.821 12.8971 16.29V15.6894H11.4891C10.9448 15.6894 10.4789 15.4956 10.0913 15.108C9.7037 14.7205 9.50991 14.2545 9.50991 13.7102V7.26912H8.10184V7.84385C8.10184 8.37492 7.90724 8.8251 7.51803 9.19437C7.12882 9.56365 6.6637 9.74829 6.12268 9.74829H3.89714C3.35286 9.74829 2.88693 9.5545 2.49934 9.16692C2.11176 8.77932 1.91797 8.31339 1.91797 7.76912V4.78996C1.91797 4.24568 2.11176 3.77975 2.49934 3.39216C2.88693 3.00458 3.35286 2.81079 3.89714 2.81079H6.12268C6.6637 2.81079 7.12882 2.9946 7.51803 3.36221C7.90724 3.72983 8.10184 4.17918 8.10184 4.71025V5.28996H12.8971V4.71025C12.8971 4.17918 13.0917 3.72983 13.4809 3.36221C13.8702 2.9946 14.3353 2.81079 14.8763 2.81079H17.1018C17.6461 2.81079 18.1121 3.00458 18.4996 3.39216C18.8872 3.77975 19.081 4.24568 19.081 4.78996V7.76912C19.081 8.31339 18.8872 8.77932 18.4996 9.16692C18.1121 9.5545 17.6461 9.74829 17.1018 9.74829H14.8763C14.3353 9.74829 13.8702 9.56365 13.4809 9.19437C13.0917 8.8251 12.8971 8.37492 12.8971 7.84385V7.26912H11.4891V13.7102H12.8971V13.1355C12.8905 12.6045 13.0834 12.1543 13.476 11.785C13.8685 11.4157 14.3353 11.2311 14.8763 11.2311H17.1018C17.6461 11.2311 18.1121 11.4249 18.4996 11.8125C18.8872 12.2001 19.081 12.666 19.081 13.2102V16.2102C19.081 16.7545 18.8872 17.2205 18.4996 17.608C18.1121 17.9956 17.6461 18.1894 17.1018 18.1894H14.8763ZM14.8763 7.76912H17.1018V4.78996H14.8763V7.76912ZM14.8763 16.2102H17.1018V13.2102H14.8763V16.2102ZM3.89714 7.76912H6.12268V4.78996H3.89714V7.76912Z" fill="#CACACA"/>
</g>
</g>
</svg>
