<svg width="21" height="20" viewBox="0 0 21 20" fill="none" xmlns="http://www.w3.org/2000/svg">
<g id="data_object">
<mask id="mask0_33_332" style="mask-type:alpha" maskUnits="userSpaceOnUse" x="0" y="0" width="21" height="20">
<rect id="Bounding box" x="0.5" width="20" height="20" fill="#D9D9D9"/>
</mask>
<g mask="url(#mask0_33_332)">
<path id="data_object_2" d="M12.992 16.6667C12.7608 16.6667 12.5584 16.5799 12.3848 16.4063C12.2112 16.2326 12.1244 16.0278 12.1244 15.7917C12.1244 15.5556 12.2112 15.3507 12.3848 15.1771C12.5584 15.0035 12.7608 14.9167 12.992 14.9167H14.6244C14.8487 14.9167 15.0367 14.8408 15.1884 14.6891C15.3401 14.5373 15.416 14.3493 15.416 14.125V12.4583C15.416 11.92 15.5688 11.4313 15.8744 10.9921C16.1799 10.5529 16.5896 10.2431 17.1035 10.0625V9.89584C16.5973 9.71529 16.1895 9.40973 15.8801 8.97918C15.5707 8.54862 15.416 8.06945 15.416 7.54168V5.87501C15.416 5.6507 15.3401 5.46268 15.1884 5.31095C15.0367 5.15921 14.8487 5.08334 14.6244 5.08334H12.992C12.7608 5.08334 12.5584 4.99654 12.3848 4.82293C12.2112 4.64932 12.1244 4.44445 12.1244 4.20834C12.1244 3.97223 12.2112 3.76737 12.3848 3.59376C12.5584 3.42015 12.7608 3.33334 12.992 3.33334H14.6244C15.3304 3.33334 15.9305 3.58045 16.4247 4.07466C16.9189 4.56888 17.166 5.169 17.166 5.87501V7.54168C17.166 7.76598 17.2419 7.954 17.3936 8.10574C17.5454 8.25748 17.7334 8.33334 17.9577 8.33334C18.1938 8.33334 18.3987 8.42015 18.5723 8.59376C18.7459 8.76737 18.8327 8.97223 18.8327 9.20834V10.7917C18.8327 11.0278 18.7459 11.2326 18.5723 11.4063C18.3987 11.5799 18.1973 11.6667 17.9681 11.6667C17.7389 11.6667 17.548 11.7425 17.3952 11.8943C17.2424 12.046 17.166 12.234 17.166 12.4583V14.125C17.166 14.831 16.9189 15.4311 16.4247 15.9254C15.9305 16.4196 15.3304 16.6667 14.6244 16.6667H12.992ZM6.37435 16.6667C5.66834 16.6667 5.06822 16.4196 4.57399 15.9254C4.07979 15.4311 3.83268 14.831 3.83268 14.125V12.4583C3.83268 12.234 3.75681 12.046 3.60508 11.8943C3.45334 11.7425 3.26532 11.6667 3.04102 11.6667C2.8049 11.6667 2.60004 11.5799 2.42643 11.4063C2.25282 11.2326 2.16602 11.0278 2.16602 10.7917V9.20834C2.16602 8.97223 2.25282 8.76737 2.42643 8.59376C2.60004 8.42015 2.80143 8.33334 3.0306 8.33334C3.25977 8.33334 3.45074 8.25748 3.60352 8.10574C3.75629 7.954 3.83268 7.76598 3.83268 7.54168V5.87501C3.83268 5.169 4.07979 4.56888 4.57399 4.07466C5.06822 3.58045 5.66834 3.33334 6.37435 3.33334H8.00666C8.2379 3.33334 8.44032 3.42015 8.61393 3.59376C8.78754 3.76737 8.87435 3.97223 8.87435 4.20834C8.87435 4.44445 8.78754 4.64932 8.61393 4.82293C8.44032 4.99654 8.2379 5.08334 8.00666 5.08334H6.37435C6.15004 5.08334 5.96202 5.15921 5.81029 5.31095C5.65855 5.46268 5.58268 5.6507 5.58268 5.87501V7.54168C5.58268 8.06945 5.428 8.54862 5.11862 8.97918C4.80925 9.40973 4.40143 9.71529 3.89518 9.89584V10.0625C4.40907 10.2431 4.81879 10.5529 5.12435 10.9921C5.4299 11.4313 5.58268 11.92 5.58268 12.4583V14.125C5.58268 14.3493 5.65855 14.5373 5.81029 14.6891C5.96202 14.8408 6.15004 14.9167 6.37435 14.9167H8.00666C8.2379 14.9167 8.44032 15.0035 8.61393 15.1771C8.78754 15.3507 8.87435 15.5556 8.87435 15.7917C8.87435 16.0278 8.78754 16.2326 8.61393 16.4063C8.44032 16.5799 8.2379 16.6667 8.00666 16.6667H6.37435Z" fill="#D4C7C7"/>
</g>
</g>
</svg>
